{
    "prepare_queue": {
        "installed": [],
        "uninstalled": []
    },
    "config_munge": {
        "files": {}
    },
    "installed_plugins": {
        "phonegap-plugin-push": {
            "SENDER_ID": "85075801930",
            "PACKAGE_NAME": "com.tekkiweb.kushli"
        },
        "uk.co.workingedge.phonegap.plugin.launchnavigator": {
            "PACKAGE_NAME": "com.tekkiweb.kushli"
        }
    },
    "dependent_plugins": {}
}